// Jest Snapshot v1, https://goo.gl/fbAQLP

exports[`ErrorComponent Renders correctly 1`] = `
<div
  className="error__container"
>
  <div
    className="error__item"
  >
    <img
      alt="error-logo"
      className="error__logo"
      src="error.svg"
    />
    Возникла ошибка при выполнении запроса
    <button
      className="error__button"
      onClick={[MockFunction]}
    >
      Повторить запрос
    </button>
  </div>
</div>
`;
